[gd_scene load_steps=4 format=2]

[ext_resource path="res://Scenes/Edit1.gd" type="Script" id=1]
[ext_resource path="res://Assets/Images/background.png" type="Texture" id=2]
[ext_resource path="res://Assets/Fonts/gucci_font1.tres" type="DynamicFont" id=3]

[node name="Node2D" type="Node2D"]
script = ExtResource( 1 )

[node name="Sprite" type="Sprite" parent="."]
show_behind_parent = true
position = Vector2( 300.395, 562.198 )
scale = Vector2( 1, 0.937784 )
texture = ExtResource( 2 )

[node name="TextEdit" type="TextEdit" parent="."]
anchor_left = 1.0
anchor_top = 1.0
anchor_right = 1.0
anchor_bottom = 1.0
margin_top = 124.0
margin_right = 576.0
margin_bottom = 950.0
mouse_default_cursor_shape = 0
custom_fonts/font = ExtResource( 3 )
custom_colors/function_color = Color( 1, 0, 0, 1 )
custom_colors/safe_line_number_color = Color( 0, 0, 0, 1 )
custom_colors/symbol_color = Color( 0.027451, 0.913725, 0.0431373, 1 )
custom_colors/caret_background_color = Color( 0, 0, 0, 1 )
custom_colors/selection_color = Color( 0.0313726, 0.227451, 0.788235, 1 )
custom_colors/caret_color = Color( 0.027451, 0.913725, 0.0431373, 1 )
custom_colors/breakpoint_color = Color( 0.027451, 0.913725, 0.0431373, 1 )
custom_colors/font_color = Color( 0.027451, 0.913725, 0.0431373, 1 )
custom_colors/line_number_color = Color( 0, 0, 0, 1 )
custom_colors/completion_font_color = Color( 0, 0, 0, 1 )
custom_colors/completion_scroll_color = Color( 0, 0, 0, 1 )
custom_colors/background_color = Color( 0, 0, 0, 1 )
custom_colors/number_color = Color( 0, 0, 0, 1 )
custom_colors/completion_background_color = Color( 0, 0, 0, 1 )
custom_colors/brace_mismatch_color = Color( 0, 0, 0, 1 )
custom_colors/current_line_color = Color( 0.392157, 0.639216, 0.164706, 1 )
custom_colors/completion_selected_color = Color( 0, 0, 0, 1 )
custom_colors/mark_color = Color( 0, 0, 0, 1 )
custom_colors/word_highlighted_color = Color( 0, 0, 0, 1 )
custom_colors/completion_existing_color = Color( 0, 0, 0, 1 )
syntax_highlighting = true
show_line_numbers = true
breakpoint_gutter = true
context_menu_enabled = false
smooth_scrolling = true
hiding_enabled = 1
wrap_enabled = true
caret_blink = true

[node name="Timer" type="Timer" parent="."]
wait_time = 2.0
autostart = true

[node name="Timer2" type="Timer" parent="."]
[connection signal="timeout" from="Timer" to="." method="_on_Timer_timeout"]
[connection signal="timeout" from="Timer2" to="." method="_on_Timer2_timeout"]
